<svg width="202" height="180" viewBox="0 0 202 180" fill="none" xmlns="http://www.w3.org/2000/svg">
<g clip-path="url(#clip0)">
<path d="M67.4542 173.663L0 180V21.203L67.4542 14.8661V173.663Z" fill="url(#paint0_linear)"/>
<path d="M67.4531 173.663L134.908 180V21.203L67.4531 14.8661V173.663Z" fill="url(#paint1_linear)"/>
<path d="M201.04 173.663L134.908 180V21.203L201.04 14.8661V173.663Z" fill="url(#paint2_linear)"/>
<path d="M67.6925 169.255L2.14844 175.344V22.7658L67.6925 16.677V169.255Z" fill="#F5F5F5"/>
<path d="M67.6934 169.255L133.237 175.344V22.7658L67.6934 16.677V169.255Z" fill="white"/>
<path d="M198.78 169.255L133.236 175.344V22.7658L198.78 16.677V169.255Z" fill="#F5F5F5"/>
<path opacity="0.3" d="M67.6931 30.6895L17.9082 32.4362V39.2414V48.5536V55.3588H60.1714V47.0707L67.6931 46.8068L79.1542 50.3445V34.2272L67.6931 30.6895Z" fill="#57ABE5"/>
<path opacity="0.3" d="M67.694 158.868L11.8203 164.241V143.825L67.694 138.453V158.868Z" fill="#57ABE5"/>
<path opacity="0.3" d="M61.5768 95.6746L5.70312 101.047V80.6318L61.5768 75.2592V95.6746Z" fill="#57ABE5"/>
<path opacity="0.3" d="M125 143.109H100.645V161.734H125V143.109Z" fill="#57ABE5"/>
<path opacity="0.3" d="M117.072 99.3944H92.7168V118.019H117.072V99.3944Z" fill="#57ABE5"/>
<path opacity="0.3" d="M127.037 41.1838H102.682V59.8083H127.037V41.1838Z" fill="#57ABE5"/>
<path opacity="0.3" d="M189.469 153.138L151.504 156.361V131.648L189.469 128.424V153.138Z" fill="#57ABE5"/>
<path opacity="0.3" d="M184.938 66.1613L146.973 69.3849V44.6716L184.938 41.4481V66.1613Z" fill="#57ABE5"/>
<path d="M181.67 20.2464C181.67 29.1069 166.182 54.1987 166.182 54.1987C166.182 54.1987 150.693 29.1069 150.693 20.2464C150.693 11.3859 157.628 4.203 166.182 4.203C174.736 4.203 181.67 11.3859 181.67 20.2464Z" fill="url(#paint3_linear)"/>
<path d="M166.183 23.9774C168.769 23.9774 170.865 21.8058 170.865 19.1271C170.865 16.4483 168.769 14.2767 166.183 14.2767C163.596 14.2767 161.5 16.4483 161.5 19.1271C161.5 21.8058 163.596 23.9774 166.183 23.9774Z" fill="url(#paint4_linear)"/>
<path d="M180.514 20.2751C180.514 28.1906 166.182 50.6063 166.182 50.6063C166.182 50.6063 151.85 28.1906 151.85 20.2751C151.85 16.474 153.36 12.8285 156.047 10.1407C158.735 7.45282 162.381 5.94281 166.182 5.94281C169.983 5.94281 173.629 7.45282 176.316 10.1407C179.004 12.8285 180.514 16.474 180.514 20.2751V20.2751Z" fill="#57ABE5"/>
<path d="M166.183 23.6083C168.576 23.6083 170.516 21.6683 170.516 19.2752C170.516 16.8822 168.576 14.9422 166.183 14.9422C163.79 14.9422 161.85 16.8822 161.85 19.2752C161.85 21.6683 163.79 23.6083 166.183 23.6083Z" fill="white"/>
<path d="M51.043 120.651C51.043 129.574 35.0947 154.843 35.0947 154.843C35.0947 154.843 19.1465 129.574 19.1465 120.651C19.1465 111.727 26.2868 104.494 35.0947 104.494C43.9027 104.494 51.043 111.727 51.043 120.651Z" fill="url(#paint5_linear)"/>
<path d="M35.095 124.408C37.7579 124.408 39.9166 122.221 39.9166 119.523C39.9166 116.826 37.7579 114.639 35.095 114.639C32.4321 114.639 30.2734 116.826 30.2734 119.523C30.2734 122.221 32.4321 124.408 35.095 124.408Z" fill="url(#paint6_linear)"/>
<path d="M49.4264 120.561C49.4264 128.477 35.0941 150.892 35.0941 150.892C35.0941 150.892 20.7617 128.477 20.7617 120.561C20.761 118.679 21.1311 116.814 21.8511 115.075C22.571 113.335 23.6266 111.754 24.9575 110.423C26.2885 109.092 27.8687 108.035 29.608 107.315C31.3472 106.594 33.2114 106.223 35.094 106.223C36.9767 106.223 38.8409 106.594 40.5801 107.315C42.3194 108.035 43.8996 109.092 45.2305 110.423C46.5615 111.754 47.6171 113.335 48.337 115.075C49.057 116.814 49.4271 118.679 49.4264 120.561H49.4264Z" fill="#57ABE5"/>
<path d="M35.0947 123.894C37.4878 123.894 39.4278 121.954 39.4278 119.561C39.4278 117.168 37.4878 115.228 35.0947 115.228C32.7017 115.228 30.7617 117.168 30.7617 119.561C30.7617 121.954 32.7017 123.894 35.0947 123.894Z" fill="white"/>
<path d="M127.116 121.694C127.116 129.609 112.783 152.025 112.783 152.025C112.783 152.025 98.4512 129.609 98.4512 121.694C98.4504 119.811 98.8206 117.947 99.5405 116.207C100.26 114.468 101.316 112.887 102.647 111.555C103.978 110.224 105.558 109.168 107.297 108.447C109.037 107.727 110.901 107.356 112.783 107.356C114.666 107.356 116.53 107.727 118.27 108.447C120.009 109.168 121.589 110.224 122.92 111.555C124.251 112.887 125.307 114.468 126.026 116.207C126.746 117.947 127.117 119.811 127.116 121.694V121.694Z" fill="#57ABE5"/>
<path d="M112.784 125.027C115.177 125.027 117.117 123.087 117.117 120.694C117.117 118.301 115.177 116.361 112.784 116.361C110.391 116.361 108.451 118.301 108.451 120.694C108.451 123.087 110.391 125.027 112.784 125.027Z" fill="white"/>
<path d="M183.29 112.634C183.29 120.549 168.957 142.965 168.957 142.965C168.957 142.965 154.625 120.549 154.625 112.634C154.625 108.832 156.135 105.187 158.823 102.499C161.511 99.8113 165.156 98.3013 168.957 98.3013C172.758 98.3013 176.404 99.8113 179.092 102.499C181.78 105.187 183.29 108.832 183.29 112.634V112.634Z" fill="#57ABE5"/>
<path d="M168.956 115.967C171.349 115.967 173.289 114.027 173.289 111.634C173.289 109.241 171.349 107.301 168.956 107.301C166.563 107.301 164.623 109.241 164.623 111.634C164.623 114.027 166.563 115.967 168.956 115.967Z" fill="white"/>
<path d="M56.6744 14.3323C56.6744 22.2479 42.3421 44.6635 42.3421 44.6635C42.3421 44.6635 28.0098 22.2479 28.0098 14.3323C28.009 12.4497 28.3792 10.5854 29.0991 8.84585C29.819 7.10632 30.8746 5.52566 32.2056 4.19418C33.5365 2.8627 35.1168 1.80648 36.856 1.08585C38.5953 0.365229 40.4595 -0.00567627 42.3421 -0.00567627C44.2247 -0.00567627 46.0889 0.365229 47.8281 1.08585C49.5674 1.80648 51.1476 2.8627 52.4786 4.19418C53.8095 5.52566 54.8651 7.10632 55.5851 8.84585C56.305 10.5854 56.6752 12.4497 56.6744 14.3323H56.6744Z" fill="#57ABE5"/>
<path d="M42.3428 17.6654C44.7359 17.6654 46.6758 15.7255 46.6758 13.3324C46.6758 10.9394 44.7359 8.99939 42.3428 8.99939C39.9497 8.99939 38.0098 10.9394 38.0098 13.3324C38.0098 15.7255 39.9497 17.6654 42.3428 17.6654Z" fill="white"/>
</g>
<defs>
<linearGradient id="paint0_linear" x1="33.7271" y1="180" x2="33.7271" y2="14.8661" gradientUnits="userSpaceOnUse">
<stop stop-color="#808080" stop-opacity="0.25"/>
<stop offset="0.53514" stop-color="#808080" stop-opacity="0.12"/>
<stop offset="1" stop-color="#808080" stop-opacity="0.1"/>
</linearGradient>
<linearGradient id="paint1_linear" x1="30200.4" y1="131247" x2="30200.4" y2="10853.2" gradientUnits="userSpaceOnUse">
<stop stop-color="#808080" stop-opacity="0.25"/>
<stop offset="0.53514" stop-color="#808080" stop-opacity="0.12"/>
<stop offset="1" stop-color="#808080" stop-opacity="0.1"/>
</linearGradient>
<linearGradient id="paint2_linear" x1="49178.3" y1="131247" x2="49178.3" y2="10853.2" gradientUnits="userSpaceOnUse">
<stop stop-color="#808080" stop-opacity="0.25"/>
<stop offset="0.53514" stop-color="#808080" stop-opacity="0.12"/>
<stop offset="1" stop-color="#808080" stop-opacity="0.1"/>
</linearGradient>
<linearGradient id="paint3_linear" x1="166.182" y1="54.1987" x2="166.182" y2="4.203" gradientUnits="userSpaceOnUse">
<stop stop-color="#B3B3B3" stop-opacity="0.25"/>
<stop offset="0.53514" stop-color="#B3B3B3" stop-opacity="0.1"/>
<stop offset="1" stop-color="#B3B3B3" stop-opacity="0.05"/>
</linearGradient>
<linearGradient id="paint4_linear" x1="166.183" y1="23.9774" x2="166.183" y2="14.2767" gradientUnits="userSpaceOnUse">
<stop stop-opacity="0.12"/>
<stop offset="0.55135" stop-opacity="0.09"/>
<stop offset="1" stop-opacity="0.02"/>
</linearGradient>
<linearGradient id="paint5_linear" x1="9943.62" y1="37175.6" x2="9943.62" y2="25983.4" gradientUnits="userSpaceOnUse">
<stop stop-color="#B3B3B3" stop-opacity="0.25"/>
<stop offset="0.53514" stop-color="#B3B3B3" stop-opacity="0.1"/>
<stop offset="1" stop-color="#B3B3B3" stop-opacity="0.05"/>
</linearGradient>
<linearGradient id="paint6_linear" x1="35.095" y1="124.408" x2="35.095" y2="114.639" gradientUnits="userSpaceOnUse">
<stop offset="0.00541" stop-opacity="0.12"/>
<stop offset="0.55135" stop-opacity="0.09"/>
<stop offset="1" stop-opacity="0.05"/>
</linearGradient>
<clipPath id="clip0">
<rect width="201.04" height="180" fill="white"/>
</clipPath>
</defs>
</svg>
